Chapter 10 Aggregation | Composite Indicator Development and Analysis in R with COINr
…
# Now aggregate using default method: arithmetic mean, using weights found in the COIN
ASEM <- aggregate(ASEM, dset = "Normalised")

# show last few columns of aggregated data set
ASEM$Data$Aggregated[(ncol(ASEM$Data$Aggregated)-5): ncol(ASEM$Data$Aggregated)]
## # A tibble: 51 x 6
##    Environ Social SusEcFin  Conn  Sust Index
##      <dbl>  <dbl>    <dbl> <dbl> <dbl> <dbl>
##  1    71.0   67.0     65.7  50.4  67.9  59.1
##  2    55.9   86.3     53.5  54.8  65.3  60.0
##  3    56.4   54.0     62.5  42.4  57.6  50.0
##  4    76.0   54.8     55.5  45.9  62.1  54.0
##  5    61.9   59.5     31.1  45.5  50.8  48.2
##  6    53.7   61.1     72.0  48.9  62.3  55.6
##  7    72.5   79.8     62.7  51.0  71.7  61.4
##  8    35.7   68.3     70.1  49.5  58.0  53.8
##  9    52.9   82.1     63.8  48.2  66.3  57.2
## 10    66.5   60.8     54.2  47.0  60.5  53.7
## # ... with 41 more rows
…
