Chapter 7 Denomination | Composite Indicator Development and Analysis in R with COINr
…
An example of an extensive variable is population. Bigger countries tend to have bigger populations.

An example of an intensive variable is population density. This is no longer dependent on the physical size of the country.

The summary here is that an extensive variable becomes an intensive variable when we divide it by a denominator.

7.2 Denominating in COINr

Denomination is fairly simple to do in R, it’s just dividing one vector by another. Nevertheless, COINr has a dedicated function for denominating which makes life easier and helps you to track what you have done.

Before we get to that, it’s worth mentioning that COINr has a few built-in denominators sourced from the World Bank. It looks like this:

WorldDenoms
## # A tibble: 249 x 7
##    UnitName      UnitCode    Den_GDP Den_Pop Den_Area Den_GDPpc Den_IncomeGroup 
##    <chr>         <chr>         <dbl>   <dbl>    <dbl>     <dbl> <chr>           
##  1 Afghanistan   AFG         1.93e10  3.80e7   652860      507. Low income      
##  2 Albania       ALB         1.53e10  2.85e6    27400     5353. Upper middle in~
##  3 Algeria       DZA         1.71e11  4.31e7  2381740     3974. Lower middle in~
##  4 American Sam~ ASM         6.36e 8  5.53e4      200    11467. Upper middle in~
##  5 Andorra       AND         3.15e 9  7.71e4      470    40886. High income     
##  6 Angola        AGO         8.88e10  3.18e7  1246700     2791. Lower middle in~
##  7 Anguilla      AIA        NA       NA            NA       NA  <NA>            
##  8 Antarctica    ATA        NA       NA            NA       NA  <NA>            
##  9 Antigua and ~ ATG         1.66e 9  9.71e4      440    17113. High income     
## 10 Argentina     ARG         4.45e11  4.49e7  2736690     9912. Upper middle in~
## # ... with 239 more rows
…
To denominate your indicators in COINr, the function to call is denominate(). Like other COINr functions, this can be used either independently on a data frame of indicators, or on COINs. Consider that in all cases you need three main ingredients:

Some indicator data that should be denominated

Some other indicators to use as denominators

A mapping to say which denominators (if any) to use for each indicator.

7.2.1 On COINs

If you are working with a COIN, the indicator data will be present in the .$Data folder. If you specified any denominators in IndData (i.e. columns beginning with “Den_”) when calling assemble() you will also find them in .$Input$Denominators. Finally, if you specified a Denominator column in IndMeta when calling assemble() then the mapping of denominators to indicators will also be present.

# The raw indicator data which will be denominated
ASEM$Data$Raw
## # A tibble: 51 x 56
##    UnitCode UnitName  Year Group_GDP Group_GDPpc Group_Pop Group_EurAsia  Goods
##    <chr>    <chr>    <dbl> <chr>     <chr>       <chr>     <chr>          <dbl>
##  1 AUT      Austria   2018 L         XL          M         Europe        278.  
##  2 BEL      Belgium   2018 L         L           L         Europe        598.  
##  3 BGR      Bulgaria  2018 S         S           M         Europe         42.8 
##  4 HRV      Croatia   2018 S         M           S         Europe         28.4 
##  5 CYP      Cyprus    2018 S         L           S         Europe          8.77
##  6 CZE      Czech R~  2018 M         L           M         Europe        274.  
##  7 DNK      Denmark   2018 L         XL          M         Europe        147.  
##  8 EST      Estonia   2018 S         M           S         Europe         28.2 
##  9 FIN      Finland   2018 M         XL          M         Europe        102.  
## 10 FRA      France    2018 XL        L           L         Europe        849.  
## # ... with 41 more rows, and 48 more variables: Services <dbl>, FDI <dbl>,
## #   PRemit <dbl>, ForPort <dbl>, CostImpEx <dbl>, Tariff <dbl>, TBTs <dbl>,
## #   TIRcon <dbl>, RTAs <dbl>, Visa <dbl>, StMob <dbl>, Research <dbl>,
## #   Pat <dbl>, CultServ <dbl>, CultGood <dbl>, Tourist <dbl>, MigStock <dbl>,
## #   Lang <dbl>, LPI <dbl>, Flights <dbl>, Ship <dbl>, Bord <dbl>, Elec <dbl>,
## #   Gas <dbl>, ConSpeed <dbl>, Cov4G <dbl>, Embs <dbl>, IGOs <dbl>,
## #   UNVote <dbl>, Renew <dbl>, PrimEner <dbl>, CO2 <dbl>, MatCon <dbl>,
## #   Forest <dbl>, Poverty <dbl>, Palma <dbl>, TertGrad <dbl>, FreePress <dbl>,
## #   TolMin <dbl>, NGOs <dbl>, CPI <dbl>, FemLab <dbl>, WomParl <dbl>,
## #   PubDebt <dbl>, PrivDebt <dbl>, GDPGrow <dbl>, RDExp <dbl>, NEET <dbl>
# The denominators
ASEM$Input$Denominators
## # A tibble: 51 x 11
##    UnitCode UnitName  Year Group_GDP Group_GDPpc Group_Pop Group_EurAsia
##    <chr>    <chr>    <dbl> <chr>     <chr>       <chr>     <chr>        
##  1 AUT      Austria   2018 L         XL          M         Europe       
##  2 BEL      Belgium   2018 L         L           L         Europe       
##  3 BGR      Bulgaria  2018 S         S           M         Europe       
##  4 HRV      Croatia   2018 S         M           S         Europe       
##  5 CYP      Cyprus    2018 S         L           S         Europe       
##  6 CZE      Czech R~  2018 M         L           M         Europe       
##  7 DNK      Denmark   2018 L         XL          M         Europe       
##  8 EST      Estonia   2018 S         M           S         Europe       
##  9 FIN      Finland   2018 M         XL          M         Europe       
## 10 FRA      France    2018 XL        L           L         Europe       
## # ... with 41 more rows, and 4 more variables: Den_Area <dbl>,
## #   Den_Energy <dbl>, Den_GDP <dbl>, Den_Pop <dbl>
# The mapping of denominators to indicators (see Denominator column)
ASEM$Input$IndMeta
## # A tibble: 49 x 10
##    IndName IndCode Direction IndWeight Denominator IndUnit  Target Agg1  Agg2 
##    <chr>   <chr>       <dbl>     <dbl> <chr>       <chr>     <dbl> <chr> <chr>
##  1 Trade ~ Goods           1         1 Den_GDP     Trilli~ 1.82e+3 ConE~ Conn 
##  2 Trade ~ Servic~         1         1 Den_GDP     Millio~ 6.24e+2 ConE~ Conn 
##  3 Foreig~ FDI             1         1 Den_GDP     Billio~ 7.18e+1 ConE~ Conn 
##  4 Person~ PRemit          1         1 Den_GDP     Millio~ 2.87e+1 ConE~ Conn 
##  5 Foreig~ ForPort         1         1 Den_GDP     Millio~ 1.01e+4 ConE~ Conn 
##  6 Cost t~ CostIm~        -1         1 <NA>        Curren~ 4.96e+1 Inst~ Conn 
##  7 Mean t~ Tariff         -1         1 <NA>        Percent 5.26e-1 Inst~ Conn 
##  8 Techni~ TBTs           -1         1 <NA>        Number~ 8.86e+1 Inst~ Conn 
##  9 Signat~ TIRcon          1         1 <NA>        (1 (ye~ 9.50e-1 Inst~ Conn 
## 10 Region~ RTAs            1         1 <NA>        Number~ 4.38e+1 Inst~ Conn 
## # ... with 39 more rows, and 1 more variable: Agg3 <chr>
…
Let’s compare the raw Flights data with the Flights per GDP data:

# plot raw flights against denominated
iplotIndDist2(ASEM, dsets = c("Raw", "Denominated"), icodes = "Flights")

Clearly, the denominated and raw indicators are very different from one another, reflecting the completely different meaning.

7.2.2 On data frames

If you are just working with data frames, you need to supply the three ingredients directly to the function. Here we will take some of the ASEM data for illustration (recalling that both indicator and denominator data is specified in ASEMIndMeta).

# a small data frame of indicator data
IndData <- ASEMIndData[c("Goods", "Services", "FDI")]
IndData
## # A tibble: 51 x 3
##     Goods Services    FDI
##     <dbl>    <dbl>  <dbl>
##  1 278.      108.   5    
##  2 598.      216.   5.71 
##  3  42.8      13.0  1.35 
##  4  28.4      17.4  0.387
##  5   8.77     15.2  1.23 
##  6 274.       43.5  3.88 
##  7 147.      114.   9.1  
##  8  28.2      10.2  0.580
##  9 102.       53.8  6.03 
## 10 849.      471.  30.9  
## # ... with 41 more rows
# two selected denominators
Denoms <- ASEMIndData[c("Den_Pop", "Den_GDP")]

# denominate the data
IndDataDenom <- denominate(IndData, denomby = c("Den_GDP", NA, "Den_Pop"), denominators = Denoms)
IndDataDenom
## # A tibble: 51 x 3
##    Goods Services       FDI
##    <dbl>    <dbl>     <dbl>
##  1 0.712    108.  0.000572 
##  2 1.28     216.  0.000500 
##  3 0.804     13.0 0.000191 
##  4 0.554     17.4 0.0000924
##  5 0.437     15.2 0.00104  
##  6 1.40      43.5 0.000365 
##  7 0.478    114.  0.00159  
##  8 1.21      10.2 0.000443 
##  9 0.426     53.8 0.00109  
## 10 0.344    471.  0.000476 
## # ... with 41 more rows
…
