Chapter 11 Helper functions | COINr: An R Package for Composite Indicator Development and Analysis
…
# This is the file path and name where the COIN Tool is downloaded to
# You could also just put it in your project directory.
fname <- "C:/Users/becke/Downloads/COIN_Tool_v1_LITE_exampledata.xlsm"

dflist <- COINToolIn(fname)

## Imported 15 indicators and 28 units.

The output of this function is a list with the three data frame inputs to assemble().

dflist

## $IndData
## # A tibble: 28 x 17
##    UnitName UnitCode ind.01 ind.02 ind.03 ind.04 ind.05 ind.06 ind.07 ind.08
##    <chr>    <chr>     <dbl>  <dbl>  <dbl>  <dbl>  <dbl>  <dbl>  <dbl>  <dbl>
##  1 Austria  AT         13.3   80.4   492.   14.9   68.8     34    3.7   87.6
##  2 Belgium  BE         15.1   71.8   503.    7     59.6     24    5.2   81.2
##  3 Bulgaria BG         12.3   78.1   440.    2.2   51.3     15   10.6   72  
##  4 Cyprus   CY         14     76     438.    6.9   16.7     23    3.6   73.4
##  5 Czech R~ CZ         13.5   87.6   491.    8.8   73.2     27    3.9   86.7
##  6 Germany  DE          9.7   80.2   508.    8.5   46.3     30    5.6   90.1
##  7 Denmark  DK          9.7   73     504.   27.7   40.6     39    3.8   83.9
##  8 Estonia  EE          8.6   83.3   524.   15.7   35.7     37    4.1   77.1
##  9 Greece   EL         11.8   70     458.    4     31.5     30    3.9   49.2
## 10 Spain    ES         14.9   57.4   491.    9.4   34.8     33   11.4   68  
## # ... with 18 more rows, and 7 more variables: ind.09 <dbl>, ind.10 <dbl>,
## #   ind.11 <dbl>, ind.12 <dbl>, ind.13 <dbl>, ind.14 <dbl>, ind.15 <dbl>
## 
## $IndMeta
…
